{
    "apps": [
        {
            "name": "api",
            "script": "./build/server.js",
            "merge_logs": true,
            "instances": "max",
            "exec_mode": "cluster",
            "max_restarts": 20,
            "max_memory_restart": "200M",
            "env": {
                "NODE_ENV": "production"
            }
        }
    ]
}